…
``` r
fco2_recipe <- recipe(fco2 ~ ., 
                      data = fco2_train |>  
            select(year,manejo, fco2:inso, -xco2_trend) # 
) |>   
  # step_naomit(all_outcomes()) |>  # remove linhas sem fco2  
  step_naomit(c(ts, us)) |>  # retira NAs somente de ts e us
  step_novel(all_nominal_predictors()) |>  # evitar problemas quando aparece categoria nova
  step_zv(all_predictors()) |> # evita problemas com variância zero 
  step_poly(c(us,ts), degree = 2)  |> #polinômios de us e ts de grau 2  
  step_impute_median(all_numeric_predictors()) |>  # inputação da mediana - antes de normalize
  step_normalize(all_numeric_predictors())  |>  # padronização normal (x-mu)/sigmma
  step_dummy(all_nominal_predictors()) # converte fatores em variáveis binárias
bake(prep(fco2_recipe), new_data = NULL)
#> # A tibble: 10,442 × 52
#>      year     ph     mo       p      k      ca      mg    h_al     sb    ctc
#>     <dbl>  <dbl>  <dbl>   <dbl>  <dbl>   <dbl>   <dbl>   <dbl>  <dbl>  <dbl>
#>  1 -1.73  -0.110 -1.51   0.634  -1.06  -0.869  -1.55   -1.61   -1.18  -2.25 
#>  2 -1.49  -0.285  0.323  0.183   1.45   0.661   0.535   0.775   0.794  1.16 
#>  3  0.735 -0.809 -1.05   0.710  -0.393 -0.462  -0.230   0.775  -0.447  0.404
#>  4  1.23  -0.984 -1.62   0.394   0.173 -0.743  -0.421   1.05   -0.644  0.538
#>  5  0.488 -0.460  0.970 -0.607  -0.487  0.0293  0.918   0.293   0.218  0.366
#>  6  0.241 -1.51   1.37  -0.607  -0.440 -0.322   0.535   1.67   -0.140  1.42 
#>  7 -1.73  -0.110 -1.62  -0.0276 -1.04  -0.932  -1.72   -1.58   -1.27  -2.27 
#>  8 -0.993  0.414  2.05   0.335   1.87   1.64    0.0760 -0.0873  1.44   0.763
#>  9 -0.499  2.56   0.524  0.438   0.827  2.07    1.87   -0.972   2.13   0.359
#> 10  1.23   1.11  -0.971 -0.818  -0.958 -0.392  -0.995  -1.71   -0.665 -1.64 
#> # ℹ 10,432 more rows
#> # ℹ 42 more variables: v <dbl>, ds <dbl>, macro <dbl>, micro <dbl>, vtp <dbl>,
#> #   pla <dbl>, at <dbl>, silte <dbl>, arg <dbl>, hlifs <dbl>, xco2 <dbl>,
#> #   sif <dbl>, tmed <dbl>, tmax <dbl>, tmin <dbl>, umed <dbl>, umax <dbl>,
#> #   umin <dbl>, pk_pa <dbl>, rad <dbl>, par <dbl>, eto <dbl>, velmax <dbl>,
#> #   velmin <dbl>, dir_vel <dbl>, chuva <dbl>, inso <dbl>, fco2 <dbl>,
#> #   us_poly_1 <dbl>, us_poly_2 <dbl>, ts_poly_1 <dbl>, ts_poly_2 <dbl>, …
```
…
